Co-processor/waves/butterflycompute_tb.vcd
$date
	Sun May  3 21:34:15 2026
$end
$version
	Icarus Verilog
$end
$timescale
	1ps
$end
$scope module ButterflyCompute_tb $end
$var wire 32 ! B_real [31:0] $end
$var wire 32 " B_imag [31:0] $end
$var wire 32 # A_real [31:0] $end
$var wire 32 $ A_imag [31:0] $end
$var parameter 32 % Q_HALF $end
$var parameter 32 & Q_NEG_HALF $end
$var parameter 32 ' Q_NEG_ONE $end
$var parameter 32 ( Q_NEG_R2_2 $end
$var parameter 32 ) Q_ONE $end
$var parameter 32 * Q_R2_2 $end
$var parameter 32 + Q_TWO $end
$var parameter 32 , Q_ZERO $end
$var reg 32 - a_imag [31:0] $end
$var reg 32 . a_real [31:0] $end
$var reg 32 / b_imag [31:0] $end
$var reg 32 0 b_real [31:0] $end
$var reg 32 1 w_imag [31:0] $end
$var reg 32 2 w_real [31:0] $end
$var integer 32 3 checks [31:0] $end
$var integer 32 4 failures [31:0] $end
$scope function abs_diff $end
$var reg 32 5 x [31:0] $end
$var reg 32 6 y [31:0] $end
$var integer 32 7 d [31:0] $end
$upscope $end
$scope module dut $end
$var wire 32 8 a_imag [31:0] $end
$var wire 32 9 a_real [31:0] $end
$var wire 32 : b_imag [31:0] $end
$var wire 32 ; b_real [31:0] $end
$var wire 32 < w_imag [31:0] $end
$var wire 32 = w_real [31:0] $end
$var wire 32 > wb_real [31:0] $end
$var wire 32 ? wb_pp4 [31:0] $end
$var wire 32 @ wb_pp3 [31:0] $end
$var wire 32 A wb_pp2 [31:0] $end
$var wire 32 B wb_pp1 [31:0] $end
$var wire 32 C wb_imag [31:0] $end
$var wire 32 D B_real [31:0] $end
$var wire 32 E B_imag [31:0] $end
$var wire 32 F A_real [31:0] $end
$var wire 32 G A_imag [31:0] $end
$scope module add_A_imag $end
$var wire 32 H a [31:0] $end
$var wire 32 I result [31:0] $end
$var wire 32 J b [31:0] $end
$upscope $end
$scope module add_A_real $end
$var wire 32 K a [31:0] $end
$var wire 32 L result [31:0] $end
$var wire 32 M b [31:0] $end
$upscope $end
$scope module add_wb_imag $end
$var wire 32 N result [31:0] $end
$var wire 32 O b [31:0] $end
$var wire 32 P a [31:0] $end
$upscope $end
$scope module mul_wi_bi $end
$var wire 32 Q a [31:0] $end
$var wire 32 R b [31:0] $end
$var wire 32 S result [31:0] $end
$var wire 64 T full_product [63:0] $end
$upscope $end
$scope module mul_wi_br $end
$var wire 32 U a [31:0] $end
$var wire 32 V b [31:0] $end
$var wire 32 W result [31:0] $end
$var wire 64 X full_product [63:0] $end
$upscope $end
$scope module mul_wr_bi $end
$var wire 32 Y a [31:0] $end
$var wire 32 Z b [31:0] $end
$var wire 32 [ result [31:0] $end
$var wire 64 \ full_product [63:0] $end
$upscope $end
$scope module mul_wr_br $end
$var wire 32 ] a [31:0] $end
$var wire 32 ^ b [31:0] $end
$var wire 32 _ result [31:0] $end
$var wire 64 ` full_product [63:0] $end
$upscope $end
$scope module sub_B_imag $end
$var wire 32 a a [31:0] $end
$var wire 32 b b [31:0] $end
$var wire 32 c result [31:0] $end
$upscope $end
$scope module sub_B_real $end
$var wire 32 d a [31:0] $end
$var wire 32 e result [31:0] $end
$var wire 32 f b [31:0] $end
$upscope $end
$scope module sub_wb_real $end
$var wire 32 g a [31:0] $end
$var wire 32 h b [31:0] $end
$var wire 32 i result [31:0] $end
$upscope $end
$upscope $end
$scope task check_exact $end
$var reg 32 j er_A_imag [31:0] $end
$var reg 32 k er_A_real [31:0] $end
$var reg 32 l er_B_imag [31:0] $end
$var reg 32 m er_B_real [31:0] $end
$upscope $end
$scope task check_tol $end
$var reg 32 n er_A_imag [31:0] $end
$var reg 32 o er_A_real [31:0] $end
$var reg 32 p er_B_imag [31:0] $end
$var reg 32 q er_B_real [31:0] $end
$var integer 32 r ok [31:0] $end
$var integer 32 s tol [31:0] $end
$upscope $end
$upscope $end
$enddefinitions $end
$comment Show the parameter values. $end
$dumpall
b0 ,
b100000000000000000000000 +
b1011010100000100111101 *
b10000000000000000000000 )
b11111111110100101011111011000011 (
b11111111110000000000000000000000 '
b11111111111000000000000000000000 &
b1000000000000000000000 %
$end
#0
$dumpvars
bx s
bx r
bx q
bx p
bx o
bx n
b0 m
b0 l
b100000000000000000000000 k
b0 j
b10000000000000000000000 i
b0 h
b10000000000000000000000 g
b10000000000000000000000 f
b0 e
b10000000000000000000000 d
b0 c
b0 b
b0 a
b100000000000000000000000000000000000000000000 `
b10000000000000000000000 _
b10000000000000000000000 ^
b10000000000000000000000 ]
b0 \
b0 [
b0 Z
b10000000000000000000000 Y
b0 X
b0 W
b10000000000000000000000 V
b0 U
b0 T
b0 S
b0 R
b0 Q
b0 P
b0 O
b0 N
b10000000000000000000000 M
b100000000000000000000000 L
b10000000000000000000000 K
b0 J
b0 I
b0 H
b0 G
b100000000000000000000000 F
b0 E
b0 D
b0 C
b10000000000000000000000 B
b0 A
b0 @
b0 ?
b10000000000000000000000 >
b10000000000000000000000 =
b0 <
b10000000000000000000000 ;
b0 :
b10000000000000000000000 9
b0 8
bx 7
bx 6
bx 5
b0 4
b0 3
b10000000000000000000000 2
b0 1
b10000000000000000000000 0
b0 /
b10000000000000000000000 .
b0 -
b0 $
b100000000000000000000000 #
b0 "
b0 !
$end
#1000
b11111111110000000000000000000000 "
b11111111110000000000000000000000 E
b11111111110000000000000000000000 c
b10000000000000000000000 $
b10000000000000000000000 G
b10000000000000000000000 I
b10000000000000000000000 C
b10000000000000000000000 J
b10000000000000000000000 N
b10000000000000000000000 b
b10000000000000000000000 @
b10000000000000000000000 P
b10000000000000000000000 [
b0 >
b0 M
b0 f
b0 i
b0 B
b0 _
b0 g
b11111111110000000000000000000000 l
b10000000000000000000000 j
b0 k
b100000000000000000000000000000000000000000000 \
b10000000000000000000000 /
b10000000000000000000000 :
b10000000000000000000000 R
b10000000000000000000000 Z
b0 `
b0 0
b0 ;
b0 V
b0 ^
b0 #
b0 F
b0 L
b0 !
b0 D
b0 e
b0 .
b0 9
b0 K
b0 d
b1 3
#2000
b10000000000000000000000 ?
b10000000000000000000000 O
b10000000000000000000000 W
b11111111110000000000000000000000 "
b11111111110000000000000000000000 E
b11111111110000000000000000000000 c
b10000000000000000000000 $
b10000000000000000000000 G
b10000000000000000000000 I
b10000000000000000000000 C
b10000000000000000000000 J
b10000000000000000000000 N
b10000000000000000000000 b
b0 @
b0 P
b0 [
b100000000000000000000000000000000000000000000 X
b10000000000000000000000 1
b10000000000000000000000 <
b10000000000000000000000 Q
b10000000000000000000000 U
b0 2
b0 =
b0 Y
b0 ]
b0 \
b0 /
b0 :
b0 R
b0 Z
b0 `
b10000000000000000000000 0
b10000000000000000000000 ;
b10000000000000000000000 V
b10000000000000000000000 ^
b10 3
#3000
b10000000000000000000000 !
b10000000000000000000000 D
b10000000000000000000000 e
b11111111110000000000000000000000 #
b11111111110000000000000000000000 F
b11111111110000000000000000000000 L
b11111111110000000000000000000000 >
b11111111110000000000000000000000 M
b11111111110000000000000000000000 f
b11111111110000000000000000000000 i
b10000000000000000000000 A
b10000000000000000000000 S
b10000000000000000000000 h
b0 "
b0 E
b0 c
b0 $
b0 G
b0 I
b0 C
b0 J
b0 N
b0 b
b0 ?
b0 O
b0 W
b0 l
b10000000000000000000000 m
b0 j
b11111111110000000000000000000000 k
b100000000000000000000000000000000000000000000 T
b10000000000000000000000 /
b10000000000000000000000 :
b10000000000000000000000 R
b10000000000000000000000 Z
b0 X
b0 0
b0 ;
b0 V
b0 ^
b11 3
#4000
b11111111110000000000000000000000 B
b11111111110000000000000000000000 _
b11111111110000000000000000000000 g
b10000000000000000000000 !
b10000000000000000000000 D
b10000000000000000000000 e
b11111111110000000000000000000000 #
b11111111110000000000000000000000 F
b11111111110000000000000000000000 L
b11111111110000000000000000000000 >
b11111111110000000000000000000000 M
b11111111110000000000000000000000 f
b11111111110000000000000000000000 i
b0 A
b0 S
b0 h
b0 1
b0 <
b0 Q
b0 U
b1111111111111111111100000000000000000000000000000000000000000000 `
b11111111110000000000000000000000 2
b11111111110000000000000000000000 =
b11111111110000000000000000000000 Y
b11111111110000000000000000000000 ]
b0 T
b0 /
b0 :
b0 R
b0 Z
b0 X
b10000000000000000000000 0
b10000000000000000000000 ;
b10000000000000000000000 V
b10000000000000000000000 ^
b100 3
#5000
b11111111111000000000000000000000 !
b11111111111000000000000000000000 D
b11111111111000000000000000000000 e
b1000000000000000000000 #
b1000000000000000000000 F
b1000000000000000000000 L
b1000000000000000000000 >
b1000000000000000000000 M
b1000000000000000000000 f
b1000000000000000000000 i
b1000000000000000000000 B
b1000000000000000000000 _
b1000000000000000000000 g
b11111111111000000000000000000000 m
b1000000000000000000000 k
b10000000000000000000000000000000000000000000 `
b1000000000000000000000 2
b1000000000000000000000 =
b1000000000000000000000 Y
b1000000000000000000000 ]
b101 3
#6000
b1000 s
b0 p
b11111111111000000000000000000000 q
b0 n
b1000000000000000000000 o
b1011010100000100111101 2
b1011010100000100111101 =
b1011010100000100111101 Y
b1011010100000100111101 ]
b10000000000000000000000100100000100010001001 `
b1011010100000100111101 0
b1011010100000100111101 ;
b1011010100000100111101 V
b1011010100000100111101 ^
b110 3
#7000
b1 r
b0 7
b0 5
b0 6
b111 3
