Co-processor/waves/Controller_tb.vcd
$date
	Mon May  4 08:44:18 2026
$end
$version
	Icarus Verilog
$end
$timescale
	1ps
$end
$scope module Controller_tb $end
$var wire 3 ! stage [2:0] $end
$var wire 7 " iteration [6:0] $end
$var wire 1 # done $end
$var wire 8 $ addr_b [7:0] $end
$var wire 8 % addr_a [7:0] $end
$var parameter 32 & CLK_PERIOD $end
$var reg 1 ' clk $end
$var reg 1 ( rst $end
$var reg 1 ) we $end
$var integer 32 * errors [31:0] $end
$scope module uut $end
$var wire 1 ' clk $end
$var wire 1 ( rst $end
$var wire 1 ) we $end
$var wire 8 + addr_b_rev [7:0] $end
$var wire 8 , addr_b [7:0] $end
$var wire 8 - addr_a_rev [7:0] $end
$var wire 8 . addr_a [7:0] $end
$var parameter 7 / MAX_ITER $end
$var parameter 3 0 MAX_STAGE $end
$var reg 1 # done $end
$var reg 7 1 iteration [6:0] $end
$var reg 3 2 stage [2:0] $end
$scope begin genblk1[0] $end
$var parameter 2 3 i $end
$upscope $end
$scope begin genblk1[1] $end
$var parameter 2 4 i $end
$upscope $end
$scope begin genblk1[2] $end
$var parameter 3 5 i $end
$upscope $end
$scope begin genblk1[3] $end
$var parameter 3 6 i $end
$upscope $end
$scope begin genblk1[4] $end
$var parameter 4 7 i $end
$upscope $end
$scope begin genblk1[5] $end
$var parameter 4 8 i $end
$upscope $end
$scope begin genblk1[6] $end
$var parameter 4 9 i $end
$upscope $end
$scope begin genblk1[7] $end
$var parameter 4 : i $end
$upscope $end
$upscope $end
$scope task check $end
$var reg 1 ; exp_done $end
$var reg 7 < exp_iter [6:0] $end
$var reg 3 = exp_stage [2:0] $end
$var reg 64 > label [63:0] $end
$upscope $end
$scope task step $end
$upscope $end
$upscope $end
$enddefinitions $end
$comment Show the parameter values. $end
$dumpall
b111 :
b110 9
b101 8
b100 7
b11 6
b10 5
b1 4
b0 3
b111 0
b1111111 /
b1010 &
$end
#0
$dumpvars
bx >
bx =
bx <
x;
bx 2
bx 1
bx .
bx -
bx ,
bx +
b0 *
0)
1(
0'
bx %
bx $
x#
bx "
bx !
$end
#5000
b0 %
b0 .
b10000000 $
b10000000 ,
b0 -
b1 +
0#
b0 !
b0 2
b0 "
b0 1
1'
#6000
0(
b1010010010100110101010000100000001000000010000000100000 >
0;
b0 =
b0 <
#10000
0'
#15000
1'
#20000
0'
#25000
1'
#26000
1)
#30000
0'
#35000
b1000000 %
b1000000 .
b11000000 $
b11000000 ,
b10 -
b11 +
b1 "
b1 1
1'
#36000
0)
#37000
b1001001010101000100010101010010001000000011000100100000 >
b1 <
#40000
0'
#45000
1'
#46000
1)
#50000
0'
#55000
b100000 %
b100000 .
b10100000 $
b10100000 ,
b100 -
b101 +
b10 "
b10 1
1'
#56000
0)
#57000
b1001001010101000100010101010010001000000011001000100000 >
b10 <
#60000
0'
#65000
1'
#66000
1)
#70000
0'
#75000
b1100000 %
b1100000 .
b11100000 $
b11100000 ,
b110 -
b111 +
b11 "
b11 1
1'
#76000
0)
#77000
b1001001010101000100010101010010001000000011001100100000 >
b11 <
#80000
0'
#85000
1'
#86000
1)
#90000
0'
#95000
b100000 %
b100000 .
b10100000 $
b10100000 ,
b100 -
b101 +
b100 "
b100 1
1'
#96000
0)
#100000
0'
#105000
1'
#106000
1)
#110000
0'
#115000
b1100000 %
b1100000 .
b11100000 $
b11100000 ,
b110 -
b111 +
b101 "
b101 1
1'
#116000
0)
#120000
0'
#125000
1'
#126000
1)
#130000
0'
#135000
b10000 %
b10000 .
b10010000 $
b10010000 ,
b1000 -
b1001 +
b110 "
b110 1
1'
#136000
0)
#140000
0'
#145000
1'
#146000
1)
#150000
0'
#155000
b1010000 %
b1010000 .
b11010000 $
b11010000 ,
b1010 -
b1011 +
b111 "
b111 1
1'
#156000
0)
#160000
0'
#165000
1'
#166000
1)
#170000
0'
#175000
b10000 %
b10000 .
b10010000 $
b10010000 ,
b1000 -
b1001 +
b1000 "
b1000 1
1'
#176000
0)
#180000
0'
#185000
1'
#186000
1)
#190000
0'
#195000
b1010000 %
b1010000 .
b11010000 $
b11010000 ,
b1010 -
b1011 +
b1001 "
b1001 1
1'
#196000
0)
#200000
0'
#205000
1'
#206000
1)
#210000
0'
#215000
b110000 %
b110000 .
b10110000 $
b10110000 ,
b1100 -
b1101 +
b1010 "
b1010 1
1'
#216000
0)
#220000
0'
#225000
1'
#226000
1)
#230000
0'
#235000
b1110000 %
b1110000 .
b11110000 $
b11110000 ,
b1110 -
b1111 +
b1011 "
b1011 1
1'
#236000
0)
#240000
0'
#245000
1'
#246000
1)
#250000
0'
#255000
b110000 %
b110000 .
b10110000 $
b10110000 ,
b1100 -
b1101 +
b1100 "
b1100 1
1'
#256000
0)
#260000
0'
#265000
1'
#266000
1)
#270000
0'
#275000
b1110000 %
b1110000 .
b11110000 $
b11110000 ,
b1110 -
b1111 +
b1101 "
b1101 1
1'
#276000
0)
#280000
0'
#285000
1'
#286000
1)
#290000
0'
#295000
b1000 %
b1000 .
b10001000 $
b10001000 ,
b10000 -
b10001 +
b1110 "
b1110 1
1'
#296000
0)
#300000
0'
#305000
1'
#306000
1)
#310000
0'
#315000
b1001000 %
b1001000 .
b11001000 $
b11001000 ,
b10010 -
b10011 +
b1111 "
b1111 1
1'
#316000
0)
#320000
0'
#325000
1'
#326000
1)
#330000
0'
#335000
b1000 %
b1000 .
b10001000 $
b10001000 ,
b10000 -
b10001 +
b10000 "
b10000 1
1'
#336000
0)
#340000
0'
#345000
1'
#346000
1)
#350000
0'
#355000
b1001000 %
b1001000 .
b11001000 $
b11001000 ,
b10010 -
b10011 +
b10001 "
b10001 1
1'
#356000
0)
#360000
0'
#365000
1'
#366000
1)
#370000
0'
#375000
b101000 %
b101000 .
b10101000 $
b10101000 ,
b10100 -
b10101 +
b10010 "
b10010 1
1'
#376000
0)
#380000
0'
#385000
1'
#386000
1)
#390000
0'
#395000
b1101000 %
b1101000 .
b11101000 $
b11101000 ,
b10110 -
b10111 +
b10011 "
b10011 1
1'
#396000
0)
#400000
0'
#405000
1'
#406000
1)
#410000
0'
#415000
b101000 %
b101000 .
b10101000 $
b10101000 ,
b10100 -
b10101 +
b10100 "
b10100 1
1'
#416000
0)
#420000
0'
#425000
1'
#426000
1)
#430000
0'
#435000
b1101000 %
b1101000 .
b11101000 $
b11101000 ,
b10110 -
b10111 +
b10101 "
b10101 1
1'
#436000
0)
#440000
0'
#445000
1'
#446000
1)
#450000
0'
#455000
b11000 %
b11000 .
b10011000 $
b10011000 ,
b11000 -
b11001 +
b10110 "
b10110 1
1'
#456000
0)
#460000
0'
#465000
1'
#466000
1)
#470000
0'
#475000
b1011000 %
b1011000 .
b11011000 $
b11011000 ,
b11010 -
b11011 +
b10111 "
b10111 1
1'
#476000
0)
#480000
0'
#485000
1'
#486000
1)
#490000
0'
#495000
b11000 %
b11000 .
b10011000 $
b10011000 ,
b11000 -
b11001 +
b11000 "
b11000 1
1'
#496000
0)
#500000
0'
#505000
1'
#506000
1)
#510000
0'
#515000
b1011000 %
b1011000 .
b11011000 $
b11011000 ,
b11010 -
b11011 +
b11001 "
b11001 1
1'
#516000
0)
#520000
0'
#525000
1'
#526000
1)
#530000
0'
#535000
b111000 %
b111000 .
b10111000 $
b10111000 ,
b11100 -
b11101 +
b11010 "
b11010 1
1'
#536000
0)
#540000
0'
#545000
1'
#546000
1)
#550000
0'
#555000
b1111000 %
b1111000 .
b11111000 $
b11111000 ,
b11110 -
b11111 +
b11011 "
b11011 1
1'
#556000
0)
#560000
0'
#565000
1'
#566000
1)
#570000
0'
#575000
b111000 %
b111000 .
b10111000 $
b10111000 ,
b11100 -
b11101 +
b11100 "
b11100 1
1'
#576000
0)
#580000
0'
#585000
1'
#586000
1)
#590000
0'
#595000
b1111000 %
b1111000 .
b11111000 $
b11111000 ,
b11110 -
b11111 +
b11101 "
b11101 1
1'
#596000
0)
#600000
0'
#605000
1'
#606000
1)
#610000
0'
#615000
b100 %
b100 .
b10000100 $
b10000100 ,
b100000 -
b100001 +
b11110 "
b11110 1
1'
#616000
0)
#620000
0'
#625000
1'
#626000
1)
#630000
0'
#635000
b1000100 %
b1000100 .
b11000100 $
b11000100 ,
b100010 -
b100011 +
b11111 "
b11111 1
1'
#636000
0)
#640000
0'
#645000
1'
#646000
1)
#650000
0'
#655000
b100 %
b100 .
b10000100 $
b10000100 ,
b100000 -
b100001 +
b100000 "
b100000 1
1'
#656000
0)
#660000
0'
#665000
1'
#666000
1)
#670000
0'
#675000
b1000100 %
b1000100 .
b11000100 $
b11000100 ,
b100010 -
b100011 +
b100001 "
b100001 1
1'
#676000
0)
#680000
0'
#685000
1'
#686000
1)
#690000
0'
#695000
b100100 %
b100100 .
b10100100 $
b10100100 ,
b100100 -
b100101 +
b100010 "
b100010 1
1'
#696000
0)
#700000
0'
#705000
1'
#706000
1)
#710000
0'
#715000
b1100100 %
b1100100 .
b11100100 $
b11100100 ,
b100110 -
b100111 +
b100011 "
b100011 1
1'
#716000
0)
#720000
0'
#725000
1'
#726000
1)
#730000
0'
#735000
b100100 %
b100100 .
b10100100 $
b10100100 ,
b100100 -
b100101 +
b100100 "
b100100 1
1'
#736000
0)
#740000
0'
#745000
1'
#746000
1)
#750000
0'
#755000
b1100100 %
b1100100 .
b11100100 $
b11100100 ,
b100110 -
b100111 +
b100101 "
b100101 1
1'
#756000
0)
#760000
0'
#765000
1'
#766000
1)
#770000
0'
#775000
b10100 %
b10100 .
b10010100 $
b10010100 ,
b101000 -
b101001 +
b100110 "
b100110 1
1'
#776000
0)
#780000
0'
#785000
1'
#786000
1)
#790000
0'
#795000
b1010100 %
b1010100 .
b11010100 $
b11010100 ,
b101010 -
b101011 +
b100111 "
b100111 1
1'
#796000
0)
#800000
0'
#805000
1'
#806000
1)
#810000
0'
#815000
b10100 %
b10100 .
b10010100 $
b10010100 ,
b101000 -
b101001 +
b101000 "
b101000 1
1'
#816000
0)
#820000
0'
#825000
1'
#826000
1)
#830000
0'
#835000
b1010100 %
b1010100 .
b11010100 $
b11010100 ,
b101010 -
b101011 +
b101001 "
b101001 1
1'
#836000
0)
#840000
0'
#845000
1'
#846000
1)
#850000
0'
#855000
b110100 %
b110100 .
b10110100 $
b10110100 ,
b101100 -
b101101 +
b101010 "
b101010 1
1'
#856000
0)
#860000
0'
#865000
1'
#866000
1)
#870000
0'
#875000
b1110100 %
b1110100 .
b11110100 $
b11110100 ,
b101110 -
b101111 +
b101011 "
b101011 1
1'
#876000
0)
#880000
0'
#885000
1'
#886000
1)
#890000
0'
#895000
b110100 %
b110100 .
b10110100 $
b10110100 ,
b101100 -
b101101 +
b101100 "
b101100 1
1'
#896000
0)
#900000
0'
#905000
1'
#906000
1)
#910000
0'
#915000
b1110100 %
b1110100 .
b11110100 $
b11110100 ,
b101110 -
b101111 +
b101101 "
b101101 1
1'
#916000
0)
#920000
0'
#925000
1'
#926000
1)
#930000
0'
#935000
b1100 %
b1100 .
b10001100 $
b10001100 ,
b110000 -
b110001 +
b101110 "
b101110 1
1'
#936000
0)
#940000
0'
#945000
1'
#946000
1)
#950000
0'
#955000
b1001100 %
b1001100 .
b11001100 $
b11001100 ,
b110010 -
b110011 +
b101111 "
b101111 1
1'
#956000
0)
#960000
0'
#965000
1'
#966000
1)
#970000
0'
#975000
b1100 %
b1100 .
b10001100 $
b10001100 ,
b110000 -
b110001 +
b110000 "
b110000 1
1'
#976000
0)
#980000
0'
#985000
1'
#986000
1)
#990000
0'
#995000
b1001100 %
b1001100 .
b11001100 $
b11001100 ,
b110010 -
b110011 +
b110001 "
b110001 1
1'
#996000
0)
#1000000
0'
#1005000
1'
#1006000
1)
#1010000
0'
#1015000
b101100 %
b101100 .
b10101100 $
b10101100 ,
b110100 -
b110101 +
b110010 "
b110010 1
1'
#1016000
0)
#1020000
0'
#1025000
1'
#1026000
1)
#1030000
0'
#1035000
b1101100 %
b1101100 .
b11101100 $
b11101100 ,
b110110 -
b110111 +
b110011 "
b110011 1
1'
#1036000
0)
#1040000
0'
#1045000
1'
#1046000
1)
#1050000
0'
#1055000
b101100 %
b101100 .
b10101100 $
b10101100 ,
b110100 -
b110101 +
b110100 "
b110100 1
1'
#1056000
0)
#1060000
0'
#1065000
1'
#1066000
1)
#1070000
0'
#1075000
b1101100 %
b1101100 .
b11101100 $
b11101100 ,
b110110 -
b110111 +
b110101 "
b110101 1
1'
#1076000
0)
#1080000
0'
#1085000
1'
#1086000
1)
#1090000
0'
#1095000
b11100 %
b11100 .
b10011100 $
b10011100 ,
b111000 -
b111001 +
b110110 "
b110110 1
1'
#1096000
0)
#1100000
0'
#1105000
1'
#1106000
1)
#1110000
0'
#1115000
b1011100 %
b1011100 .
b11011100 $
b11011100 ,
b111010 -
b111011 +
b110111 "
b110111 1
1'
#1116000
0)
#1120000
0'
#1125000
1'
#1126000
1)
#1130000
0'
#1135000
b11100 %
b11100 .
b10011100 $
b10011100 ,
b111000 -
b111001 +
b111000 "
b111000 1
1'
#1136000
0)
#1140000
0'
#1145000
1'
#1146000
1)
#1150000
0'
#1155000
b1011100 %
b1011100 .
b11011100 $
b11011100 ,
b111010 -
b111011 +
b111001 "
b111001 1
1'
#1156000
0)
#1160000
0'
#1165000
1'
#1166000
1)
#1170000
0'
#1175000
b111100 %
b111100 .
b10111100 $
b10111100 ,
b111100 -
b111101 +
b111010 "
b111010 1
1'
#1176000
0)
#1180000
0'
#1185000
1'
#1186000
1)
#1190000
0'
#1195000
b1111100 %
b1111100 .
b11111100 $
b11111100 ,
b111110 -
b111111 +
b111011 "
b111011 1
1'
#1196000
0)
#1200000
0'
#1205000
1'
#1206000
1)
#1210000
0'
#1215000
b111100 %
b111100 .
b10111100 $
b10111100 ,
b111100 -
b111101 +
b111100 "
b111100 1
1'
#1216000
0)
#1220000
0'
#1225000
1'
#1226000
1)
#1230000
0'
#1235000
b1111100 %
b1111100 .
b11111100 $
b11111100 ,
b111110 -
b111111 +
b111101 "
b111101 1
1'
#1236000
0)
#1240000
0'
#1245000
1'
#1246000
1)
#1250000
0'
#1255000
b10 %
b10 .
b10000010 $
b10000010 ,
b1000000 -
b1000001 +
b111110 "
b111110 1
1'
#1256000
0)
#1260000
0'
#1265000
1'
#1266000
1)
#1270000
0'
#1275000
b1000010 %
b1000010 .
b11000010 $
b11000010 ,
b1000010 -
b1000011 +
b111111 "
b111111 1
1'
#1276000
0)
#1280000
0'
#1285000
1'
#1286000
1)
#1290000
0'
#1295000
b10 %
b10 .
b10000010 $
b10000010 ,
b1000000 -
b1000001 +
b1000000 "
b1000000 1
1'
#1296000
0)
#1300000
0'
#1305000
1'
#1306000
1)
#1310000
0'
#1315000
b1000010 %
b1000010 .
b11000010 $
b11000010 ,
b1000010 -
b1000011 +
b1000001 "
b1000001 1
1'
#1316000
0)
#1320000
0'
#1325000
1'
#1326000
1)
#1330000
0'
#1335000
b100010 %
b100010 .
b10100010 $
b10100010 ,
b1000100 -
b1000101 +
b1000010 "
b1000010 1
1'
#1336000
0)
#1340000
0'
#1345000
1'
#1346000
1)
#1350000
0'
#1355000
b1100010 %
b1100010 .
b11100010 $
b11100010 ,
b1000110 -
b1000111 +
b1000011 "
b1000011 1
1'
#1356000
0)
#1360000
0'
#1365000
1'
#1366000
1)
#1370000
0'
#1375000
b100010 %
b100010 .
b10100010 $
b10100010 ,
b1000100 -
b1000101 +
b1000100 "
b1000100 1
1'
#1376000
0)
#1380000
0'
#1385000
1'
#1386000
1)
#1390000
0'
#1395000
b1100010 %
b1100010 .
b11100010 $
b11100010 ,
b1000110 -
b1000111 +
b1000101 "
b1000101 1
1'
#1396000
0)
#1400000
0'
#1405000
1'
#1406000
1)
#1410000
0'
#1415000
b10010 %
b10010 .
b10010010 $
b10010010 ,
b1001000 -
b1001001 +
b1000110 "
b1000110 1
1'
#1416000
0)
#1420000
0'
#1425000
1'
#1426000
1)
#1430000
0'
#1435000
b1010010 %
b1010010 .
b11010010 $
b11010010 ,
b1001010 -
b1001011 +
b1000111 "
b1000111 1
1'
#1436000
0)
#1440000
0'
#1445000
1'
#1446000
1)
#1450000
0'
#1455000
b10010 %
b10010 .
b10010010 $
b10010010 ,
b1001000 -
b1001001 +
b1001000 "
b1001000 1
1'
#1456000
0)
#1460000
0'
#1465000
1'
#1466000
1)
#1470000
0'
#1475000
b1010010 %
b1010010 .
b11010010 $
b11010010 ,
b1001010 -
b1001011 +
b1001001 "
b1001001 1
1'
#1476000
0)
#1480000
0'
#1485000
1'
#1486000
1)
#1490000
0'
#1495000
b110010 %
b110010 .
b10110010 $
b10110010 ,
b1001100 -
b1001101 +
b1001010 "
b1001010 1
1'
#1496000
0)
#1500000
0'
#1505000
1'
#1506000
1)
#1510000
0'
#1515000
b1110010 %
b1110010 .
b11110010 $
b11110010 ,
b1001110 -
b1001111 +
b1001011 "
b1001011 1
1'
#1516000
0)
#1520000
0'
#1525000
1'
#1526000
1)
#1530000
0'
#1535000
b110010 %
b110010 .
b10110010 $
b10110010 ,
b1001100 -
b1001101 +
b1001100 "
b1001100 1
1'
#1536000
0)
#1540000
0'
#1545000
1'
#1546000
1)
#1550000
0'
#1555000
b1110010 %
b1110010 .
b11110010 $
b11110010 ,
b1001110 -
b1001111 +
b1001101 "
b1001101 1
1'
#1556000
0)
#1560000
0'
#1565000
1'
#1566000
1)
#1570000
0'
#1575000
b1010 %
b1010 .
b10001010 $
b10001010 ,
b1010000 -
b1010001 +
b1001110 "
b1001110 1
1'
#1576000
0)
#1580000
0'
#1585000
1'
#1586000
1)
#1590000
0'
#1595000
b1001010 %
b1001010 .
b11001010 $
b11001010 ,
b1010010 -
b1010011 +
b1001111 "
b1001111 1
1'
#1596000
0)
#1600000
0'
#1605000
1'
#1606000
1)
#1610000
0'
#1615000
b1010 %
b1010 .
b10001010 $
b10001010 ,
b1010000 -
b1010001 +
b1010000 "
b1010000 1
1'
#1616000
0)
#1620000
0'
#1625000
1'
#1626000
1)
#1630000
0'
#1635000
b1001010 %
b1001010 .
b11001010 $
b11001010 ,
b1010010 -
b1010011 +
b1010001 "
b1010001 1
1'
#1636000
0)
#1640000
0'
#1645000
1'
#1646000
1)
#1650000
0'
#1655000
b101010 %
b101010 .
b10101010 $
b10101010 ,
b1010100 -
b1010101 +
b1010010 "
b1010010 1
1'
#1656000
0)
#1660000
0'
#1665000
1'
#1666000
1)
#1670000
0'
#1675000
b1101010 %
b1101010 .
b11101010 $
b11101010 ,
b1010110 -
b1010111 +
b1010011 "
b1010011 1
1'
#1676000
0)
#1680000
0'
#1685000
1'
#1686000
1)
#1690000
0'
#1695000
b101010 %
b101010 .
b10101010 $
b10101010 ,
b1010100 -
b1010101 +
b1010100 "
b1010100 1
1'
#1696000
0)
#1700000
0'
#1705000
1'
#1706000
1)
#1710000
0'
#1715000
b1101010 %
b1101010 .
b11101010 $
b11101010 ,
b1010110 -
b1010111 +
b1010101 "
b1010101 1
1'
#1716000
0)
#1720000
0'
#1725000
1'
#1726000
1)
#1730000
0'
#1735000
b11010 %
b11010 .
b10011010 $
b10011010 ,
b1011000 -
b1011001 +
b1010110 "
b1010110 1
1'
#1736000
0)
#1740000
0'
#1745000
1'
#1746000
1)
#1750000
0'
#1755000
b1011010 %
b1011010 .
b11011010 $
b11011010 ,
b1011010 -
b1011011 +
b1010111 "
b1010111 1
1'
#1756000
0)
#1760000
0'
#1765000
1'
#1766000
1)
#1770000
0'
#1775000
b11010 %
b11010 .
b10011010 $
b10011010 ,
b1011000 -
b1011001 +
b1011000 "
b1011000 1
1'
#1776000
0)
#1780000
0'
#1785000
1'
#1786000
1)
#1790000
0'
#1795000
b1011010 %
b1011010 .
b11011010 $
b11011010 ,
b1011010 -
b1011011 +
b1011001 "
b1011001 1
1'
#1796000
0)
#1800000
0'
#1805000
1'
#1806000
1)
#1810000
0'
#1815000
b111010 %
b111010 .
b10111010 $
b10111010 ,
b1011100 -
b1011101 +
b1011010 "
b1011010 1
1'
#1816000
0)
#1820000
0'
#1825000
1'
#1826000
1)
#1830000
0'
#1835000
b1111010 %
b1111010 .
b11111010 $
b11111010 ,
b1011110 -
b1011111 +
b1011011 "
b1011011 1
1'
#1836000
0)
#1840000
0'
#1845000
1'
#1846000
1)
#1850000
0'
#1855000
b111010 %
b111010 .
b10111010 $
b10111010 ,
b1011100 -
b1011101 +
b1011100 "
b1011100 1
1'
#1856000
0)
#1860000
0'
#1865000
1'
#1866000
1)
#1870000
0'
#1875000
b1111010 %
b1111010 .
b11111010 $
b11111010 ,
b1011110 -
b1011111 +
b1011101 "
b1011101 1
1'
#1876000
0)
#1880000
0'
#1885000
1'
#1886000
1)
#1890000
0'
#1895000
b110 %
b110 .
b10000110 $
b10000110 ,
b1100000 -
b1100001 +
b1011110 "
b1011110 1
1'
#1896000
0)
#1900000
0'
#1905000
1'
#1906000
1)
#1910000
0'
#1915000
b1000110 %
b1000110 .
b11000110 $
b11000110 ,
b1100010 -
b1100011 +
b1011111 "
b1011111 1
1'
#1916000
0)
#1920000
0'
#1925000
1'
#1926000
1)
#1930000
0'
#1935000
b110 %
b110 .
b10000110 $
b10000110 ,
b1100000 -
b1100001 +
b1100000 "
b1100000 1
1'
#1936000
0)
#1940000
0'
#1945000
1'
#1946000
1)
#1950000
0'
#1955000
b1000110 %
b1000110 .
b11000110 $
b11000110 ,
b1100010 -
b1100011 +
b1100001 "
b1100001 1
1'
#1956000
0)
#1960000
0'
#1965000
1'
#1966000
1)
#1970000
0'
#1975000
b100110 %
b100110 .
b10100110 $
b10100110 ,
b1100100 -
b1100101 +
b1100010 "
b1100010 1
1'
#1976000
0)
#1980000
0'
#1985000
1'
#1986000
1)
#1990000
0'
#1995000
b1100110 %
b1100110 .
b11100110 $
b11100110 ,
b1100110 -
b1100111 +
b1100011 "
b1100011 1
1'
#1996000
0)
#2000000
0'
#2005000
1'
#2006000
1)
#2010000
0'
#2015000
b100110 %
b100110 .
b10100110 $
b10100110 ,
b1100100 -
b1100101 +
b1100100 "
b1100100 1
1'
#2016000
0)
#2020000
0'
#2025000
1'
#2026000
1)
#2030000
0'
#2035000
b1100110 %
b1100110 .
b11100110 $
b11100110 ,
b1100110 -
b1100111 +
b1100101 "
b1100101 1
1'
#2036000
0)
#2040000
0'
#2045000
1'
#2046000
1)
#2050000
0'
#2055000
b10110 %
b10110 .
b10010110 $
b10010110 ,
b1101000 -
b1101001 +
b1100110 "
b1100110 1
1'
#2056000
0)
#2060000
0'
#2065000
1'
#2066000
1)
#2070000
0'
#2075000
b1010110 %
b1010110 .
b11010110 $
b11010110 ,
b1101010 -
b1101011 +
b1100111 "
b1100111 1
1'
#2076000
0)
#2080000
0'
#2085000
1'
#2086000
1)
#2090000
0'
#2095000
b10110 %
b10110 .
b10010110 $
b10010110 ,
b1101000 -
b1101001 +
b1101000 "
b1101000 1
1'
#2096000
0)
#2100000
0'
#2105000
1'
#2106000
1)
#2110000
0'
#2115000
b1010110 %
b1010110 .
b11010110 $
b11010110 ,
b1101010 -
b1101011 +
b1101001 "
b1101001 1
1'
#2116000
0)
#2120000
0'
#2125000
1'
#2126000
1)
#2130000
0'
#2135000
b110110 %
b110110 .
b10110110 $
b10110110 ,
b1101100 -
b1101101 +
b1101010 "
b1101010 1
1'
#2136000
0)
#2140000
0'
#2145000
1'
#2146000
1)
#2150000
0'
#2155000
b1110110 %
b1110110 .
b11110110 $
b11110110 ,
b1101110 -
b1101111 +
b1101011 "
b1101011 1
1'
#2156000
0)
#2160000
0'
#2165000
1'
#2166000
1)
#2170000
0'
#2175000
b110110 %
b110110 .
b10110110 $
b10110110 ,
b1101100 -
b1101101 +
b1101100 "
b1101100 1
1'
#2176000
0)
#2180000
0'
#2185000
1'
#2186000
1)
#2190000
0'
#2195000
b1110110 %
b1110110 .
b11110110 $
b11110110 ,
b1101110 -
b1101111 +
b1101101 "
b1101101 1
1'
#2196000
0)
#2200000
0'
#2205000
1'
#2206000
1)
#2210000
0'
#2215000
b1110 %
b1110 .
b10001110 $
b10001110 ,
b1110000 -
b1110001 +
b1101110 "
b1101110 1
1'
#2216000
0)
#2220000
0'
#2225000
1'
#2226000
1)
#2230000
0'
#2235000
b1001110 %
b1001110 .
b11001110 $
b11001110 ,
b1110010 -
b1110011 +
b1101111 "
b1101111 1
1'
#2236000
0)
#2240000
0'
#2245000
1'
#2246000
1)
#2250000
0'
#2255000
b1110 %
b1110 .
b10001110 $
b10001110 ,
b1110000 -
b1110001 +
b1110000 "
b1110000 1
1'
#2256000
0)
#2260000
0'
#2265000
1'
#2266000
1)
#2270000
0'
#2275000
b1001110 %
b1001110 .
b11001110 $
b11001110 ,
b1110010 -
b1110011 +
b1110001 "
b1110001 1
1'
#2276000
0)
#2280000
0'
#2285000
1'
#2286000
1)
#2290000
0'
#2295000
b101110 %
b101110 .
b10101110 $
b10101110 ,
b1110100 -
b1110101 +
b1110010 "
b1110010 1
1'
#2296000
0)
#2300000
0'
#2305000
1'
#2306000
1)
#2310000
0'
#2315000
b1101110 %
b1101110 .
b11101110 $
b11101110 ,
b1110110 -
b1110111 +
b1110011 "
b1110011 1
1'
#2316000
0)
#2320000
0'
#2325000
1'
#2326000
1)
#2330000
0'
#2335000
b101110 %
b101110 .
b10101110 $
b10101110 ,
b1110100 -
b1110101 +
b1110100 "
b1110100 1
1'
#2336000
0)
#2340000
0'
#2345000
1'
#2346000
1)
#2350000
0'
#2355000
b1101110 %
b1101110 .
b11101110 $
b11101110 ,
b1110110 -
b1110111 +
b1110101 "
b1110101 1
1'
#2356000
0)
#2360000
0'
#2365000
1'
#2366000
1)
#2370000
0'
#2375000
b11110 %
b11110 .
b10011110 $
b10011110 ,
b1111000 -
b1111001 +
b1110110 "
b1110110 1
1'
#2376000
0)
#2380000
0'
#2385000
1'
#2386000
1)
#2390000
0'
#2395000
b1011110 %
b1011110 .
b11011110 $
b11011110 ,
b1111010 -
b1111011 +
b1110111 "
b1110111 1
1'
#2396000
0)
#2400000
0'
#2405000
1'
#2406000
1)
#2410000
0'
#2415000
b11110 %
b11110 .
b10011110 $
b10011110 ,
b1111000 -
b1111001 +
b1111000 "
b1111000 1
1'
#2416000
0)
#2420000
0'
#2425000
1'
#2426000
1)
#2430000
0'
#2435000
b1011110 %
b1011110 .
b11011110 $
b11011110 ,
b1111010 -
b1111011 +
b1111001 "
b1111001 1
1'
#2436000
0)
#2440000
0'
#2445000
1'
#2446000
1)
#2450000
0'
#2455000
b111110 %
b111110 .
b10111110 $
b10111110 ,
b1111100 -
b1111101 +
b1111010 "
b1111010 1
1'
#2456000
0)
#2460000
0'
#2465000
1'
#2466000
1)
#2470000
0'
#2475000
b1111110 %
b1111110 .
b11111110 $
b11111110 ,
b1111110 -
b1111111 +
b1111011 "
b1111011 1
1'
#2476000
0)
#2480000
0'
#2485000
1'
#2486000
1)
#2490000
0'
#2495000
b111110 %
b111110 .
b10111110 $
b10111110 ,
b1111100 -
b1111101 +
b1111100 "
b1111100 1
1'
#2496000
0)
#2500000
0'
#2505000
1'
#2506000
1)
#2510000
0'
#2515000
b1111110 %
b1111110 .
b11111110 $
b11111110 ,
b1111110 -
b1111111 +
b1111101 "
b1111101 1
1'
#2516000
0)
#2520000
0'
#2525000
1'
#2526000
1)
#2530000
0'
#2535000
b1 %
b1 .
b10000001 $
b10000001 ,
b10000000 -
b10000001 +
b1111110 "
b1111110 1
1'
#2536000
0)
#2540000
0'
#2545000
1'
#2546000
1)
#2550000
0'
#2555000
b1000001 %
b1000001 .
b11000001 $
b11000001 ,
b10000010 -
b10000011 +
b1111111 "
b1111111 1
1'
#2556000
0)
#2560000
0'
#2565000
1'
#2566000
1)
#2570000
0'
#2575000
b0 %
b0 .
b10000000 $
b10000000 ,
b0 -
b1 +
b1 !
b1 2
b0 "
b0 1
1'
#2576000
0)
#2577000
b1010111010100100100000101010000001000000101001100110001 >
b1 =
b0 <
#2580000
0'
#2585000
1'
#2586000
1)
#2590000
0'
#2595000
b1000000 %
b1000000 .
b11000000 $
b11000000 ,
b10 -
b11 +
b1 "
b1 1
1'
#2596000
0)
#2600000
0'
#2605000
1'
#2606000
1)
#2610000
0'
#2615000
b100000 %
b100000 .
b10100000 $
b10100000 ,
b100 -
b101 +
b10 "
b10 1
1'
#2616000
0)
#2620000
0'
#2625000
1'
#2626000
1)
#2630000
0'
#2635000
b1100000 %
b1100000 .
b11100000 $
b11100000 ,
b110 -
b111 +
b11 "
b11 1
1'
#2636000
0)
#2640000
0'
#2645000
1'
#2646000
1)
#2650000
0'
#2655000
b100000 %
b100000 .
b10100000 $
b10100000 ,
b100 -
b101 +
b100 "
b100 1
1'
#2656000
0)
#2660000
0'
#2665000
1'
#2666000
1)
#2670000
0'
#2675000
b1100000 %
b1100000 .
b11100000 $
b11100000 ,
b110 -
b111 +
b101 "
b101 1
1'
#2676000
0)
#2680000
0'
#2685000
1'
#2686000
1)
#2690000
0'
#2695000
b10000 %
b10000 .
b10010000 $
b10010000 ,
b1000 -
b1001 +
b110 "
b110 1
1'
#2696000
0)
#2700000
0'
#2705000
1'
#2706000
1)
#2710000
0'
#2715000
b1010000 %
b1010000 .
b11010000 $
b11010000 ,
b1010 -
b1011 +
b111 "
b111 1
1'
#2716000
0)
#2720000
0'
#2725000
1'
#2726000
1)
#2730000
0'
#2735000
b10000 %
b10000 .
b10010000 $
b10010000 ,
b1000 -
b1001 +
b1000 "
b1000 1
1'
#2736000
0)
#2740000
0'
#2745000
1'
#2746000
1)
#2750000
0'
#2755000
b1010000 %
b1010000 .
b11010000 $
b11010000 ,
b1010 -
b1011 +
b1001 "
b1001 1
1'
#2756000
0)
#2760000
0'
#2765000
1'
#2766000
1)
#2770000
0'
